Introducción al análisis de datos con R - 4 Análisis de datos
…
En este caso if_else resulta de utilidad porque la cantidad de condiciones eran pocas. En caso que se sean muchas, empieza a ser ineficiente en la medida que hay que concatenar if_else tras if_else. Para los casos en los que haya muchas posibilidades, es mejor usar case_when.

Para demostrar el uso de esta función, crearemos una variable que diga si el documento es de menos de un millón, mayor a un millón, mayor a dos millones, a tres, a cuatro, y mayor a cinco. Al final de la función, se le especifica el tipo de dato de la variable resultante.

df_columnas %>% mutate(
  franja_salario = case_when(
    salario > 4000 ~ "Mayor a cuatro mil",
    salario > 3000 ~ "Mayor a tres mil, menor o igual a cuatro mil",
    salario > 2000 ~ "Mayor a dos mil, menor o igual a tres mil",
    salario > 1000 ~ "Mayor a mil, menor o igual a dos mil",
    TRUE ~ "Menor o igual a mil"
  )
)

# A tibble: 148 × 8
   fecha_nacimiento documento   area     salario es_accionista institucion sexo 
   <chr>            <chr>       <chr>      <dbl>         <dbl> <chr>       <chr>
 1 24/08/1990       31-054-1896 Training    3883             1 Asociación… Mujer
 2 11/04/1984       93-328-1614 Training    3304             0 Asociación… Mujer
 3 07/10/1986       83-633-7650 Human R…    2493             0 Asociación… Mujer
 4 19/04/1982       04-065-8324 Services     627             1 Asociación… Mujer
 5 07/09/1986       49-644-6789 Marketi…    2397             0 Asociación… Mujer
 6 08/06/1990       66-578-6374 Product…     287             1 Asociación… Mujer
 7 02/04/1982       51-105-8497 Researc…    2855             1 Asociación… Mujer
 8 11/06/1984       27-296-9259 Legal       3992             1 Asociación… Mujer
 9 31/07/1982       60-141-4356 Account…    1320             0 Asociación… Mujer
10 18/04/1986       85-181-4795 Sales       1646             0 Asociación… Mujer
# ℹ 138 more rows
# ℹ 1 more variable: franja_salario <chr>

Tal como puede apreciarse, se puede utilizar tidyverse para mostrar resultados en consola. No es necesario almacenar los procesos en objetos.

df_filtrado_asfe %>% 
  mutate(genero = if_else(sexo == 1, "Hombre", "Mujer")) %>% 
  select(-sexo) %>% 
  rename(sexo = genero)

# A tibble: 148 × 6
   fecha_nacimiento documento   area                 salario es_accionista sexo 
   <chr>            <chr>       <chr>                  <dbl>         <dbl> <chr>
 1 24/08/1990       31-054-1896 Training                3883             1 Mujer
 2 11/04/1984       93-328-1614 Training                3304             0 Mujer
 3 07/10/1986       83-633-7650 Human Resources         2493             0 Mujer
 4 19/04/1982       04-065-8324 Services                 627             1 Mujer
 5 07/09/1986       49-644-6789 Marketing               2397             0 Mujer
 6 08/06/1990       66-578-6374 Product Management       287             1 Mujer
 7 02/04/1982       51-105-8497 Research and Develo…    2855             1 Mujer
 8 11/06/1984       27-296-9259 Legal                   3992             1 Mujer
 9 31/07/1982       60-141-4356 Accounting              1320             0 Mujer
10 18/04/1986       85-181-4795 Sales                   1646             0 Mujer
# ℹ 138 more rows
…
En el uso del case_when se pueden generar condiciones combinadas para alcanzar resultados más precisos. En el ejemplo anterior, se utilizó un método que implicaba ir de arriba hacía abajo con el filtro, pero lo más razonable sería combinar filtros para ser más robusto con la condición.

Vamos a pedirle a R que los valore que para cada caso sea mayor que determinado valor, pero también menor al de la siguiente categoría. De este modo no importa el orden de las condiciones, ya que son muy precisas.

df_columnas %>% mutate(
  franja_salario = case_when(
    salario > 4000 ~ "Mayor a cuatro mil",
    salario > 3000 & salario <= 4000 ~ "Mayor a tres mil, menor o igual a cuatro mil",
    salario > 2000 & salario <= 3000 ~ "Mayor a dos mil, menor o igual a tres mil",
    salario > 1000 & salario <= 2000 ~ "Mayor a mil, menor o igual a dos mil",
    TRUE ~ "Menor o igual a mil"
  )
)

# A tibble: 148 × 8
   fecha_nacimiento documento   area     salario es_accionista institucion sexo 
   <chr>            <chr>       <chr>      <dbl>         <dbl> <chr>       <chr>
 1 24/08/1990       31-054-1896 Training    3883             1 Asociación… Mujer
 2 11/04/1984       93-328-1614 Training    3304             0 Asociación… Mujer
 3 07/10/1986       83-633-7650 Human R…    2493             0 Asociación… Mujer
 4 19/04/1982       04-065-8324 Services     627             1 Asociación… Mujer
 5 07/09/1986       49-644-6789 Marketi…    2397             0 Asociación… Mujer
 6 08/06/1990       66-578-6374 Product…     287             1 Asociación… Mujer
 7 02/04/1982       51-105-8497 Researc…    2855             1 Asociación… Mujer
 8 11/06/1984       27-296-9259 Legal       3992             1 Asociación… Mujer
 9 31/07/1982       60-141-4356 Account…    1320             0 Asociación… Mujer
10 18/04/1986       85-181-4795 Sales       1646             0 Asociación… Mujer
# ℹ 138 more rows
# ℹ 1 more variable: franja_salario <chr>
…
