Introducción al análisis de datos con R - 4 Análisis de datos con R
…
Para demostrar el uso de esta función, crearemos una variable que diga si el documento es de menos de un millón, mayor a un millón, mayor a dos millones, a tres, a cuatro, y mayor a cinco. Al final de la función, se le especifica el tipo de dato de la variable resultante.

sips_columnas %>% mutate(
  tipo_documento = case_when(
    documento <= 10000000 ~ "Menor o igual a un millón",
    documento > 10000000 ~ "Mayor a un millón",
    documento > 20000000 ~ "Mayor a dos millones",
    documento > 30000000 ~ "Mayor a tres millones",
    documento > 40000000 ~ "Mayor a cuatro millones",
    documento > 50000000 ~ "Mayor a cinco millones",
    TRUE ~ "Otro"
  )
)

# A tibble: 574 × 6
   documento es_accionista institucion            fecha      sexo   tipo_docum…¹
       <dbl>         <dbl> <chr>                  <date>     <chr>  <chr>       
 1  20008549             0 Medicina Personalizada 2022-02-01 Hombre Mayor a un …
 2  20172929             0 Medicina Personalizada 2022-02-01 Hombre Mayor a un …
 3  20438713             0 Medicina Personalizada 2022-02-01 Hombre Mayor a un …
 4  20480631             0 Medicina Personalizada 2022-02-01 Mujer  Mayor a un …
 5  20688953             0 Medicina Personalizada 2022-02-01 Mujer  Mayor a un …
 6  21431711             0 Medicina Personalizada 2022-02-01 Mujer  Mayor a un …
 7  21484809             0 Medicina Personalizada 2022-02-01 Hombre Mayor a un …
 8  22301055             0 Medicina Personalizada 2022-02-01 Hombre Mayor a un …
 9  22392659             0 Medicina Personalizada 2022-02-01 Hombre Mayor a un …
10  22806233             0 Medicina Personalizada 2022-02-01 Hombre Mayor a un …
# … with 564 more rows, and abbreviated variable name ¹​tipo_documento
…
sips_filtrado_mp %>% 
  mutate(
    institucion = "Medicina Personalizada",
    fecha = as.Date(paste(anio, mes, "1", sep = "-")),
    genero = if_else(sexo == 1, "Hombre", "Mujer")
  ) %>% 
  select(
    -anio,-mes,-sexo
  ) %>% 
  rename(
    sexo = genero
  ) 

# A tibble: 574 × 5
   documento es_accionista institucion            fecha      sexo  
       <dbl>         <dbl> <chr>                  <date>     <chr> 
 1  20008549             0 Medicina Personalizada 2022-02-01 Hombre
 2  20172929             0 Medicina Personalizada 2022-02-01 Hombre
 3  20438713             0 Medicina Personalizada 2022-02-01 Hombre
 4  20480631             0 Medicina Personalizada 2022-02-01 Mujer 
 5  20688953             0 Medicina Personalizada 2022-02-01 Mujer 
 6  21431711             0 Medicina Personalizada 2022-02-01 Mujer 
 7  21484809             0 Medicina Personalizada 2022-02-01 Hombre
 8  22301055             0 Medicina Personalizada 2022-02-01 Hombre
 9  22392659             0 Medicina Personalizada 2022-02-01 Hombre
10  22806233             0 Medicina Personalizada 2022-02-01 Hombre
# … with 564 more rows
…
La primera es invertir el orden de las condiciones, comenzando de arriba hacia abajo.

sips_columnas %>% mutate(
  tipo_documento = case_when(
    documento > 50000000 ~ "Mayor a cinco millones",
    documento > 40000000 ~ "Mayor a cuatro millones",
    documento > 30000000 ~ "Mayor a tres millones",
    documento > 20000000 ~ "Mayor a dos millones",
    documento > 10000000 ~ "Mayor a un millón",
    documento <= 10000000 ~ "Menor o igual a un millón",
    TRUE ~ "Otro"
  )
)

# A tibble: 574 × 6
   documento es_accionista institucion            fecha      sexo   tipo_docum…¹
       <dbl>         <dbl> <chr>                  <date>     <chr>  <chr>       
 1  20008549             0 Medicina Personalizada 2022-02-01 Hombre Mayor a dos…
 2  20172929             0 Medicina Personalizada 2022-02-01 Hombre Mayor a dos…
 3  20438713             0 Medicina Personalizada 2022-02-01 Hombre Mayor a dos…
 4  20480631             0 Medicina Personalizada 2022-02-01 Mujer  Mayor a dos…
 5  20688953             0 Medicina Personalizada 2022-02-01 Mujer  Mayor a dos…
 6  21431711             0 Medicina Personalizada 2022-02-01 Mujer  Mayor a dos…
 7  21484809             0 Medicina Personalizada 2022-02-01 Hombre Mayor a dos…
 8  22301055             0 Medicina Personalizada 2022-02-01 Hombre Mayor a dos…
 9  22392659             0 Medicina Personalizada 2022-02-01 Hombre Mayor a dos…
10  22806233             0 Medicina Personalizada 2022-02-01 Hombre Mayor a dos…
# … with 564 more rows, and abbreviated variable name ¹​tipo_documento
La otra opción es dar mayor precisión a las condiciones, y para eso se pueden combinar condiciones. Vamos a pedirle a R que los valore que para cada caso sea mayor que determinado valor, pero también menor al de la siguiente categoría. De este modo no importa el orden de las condiciones, ya que son muy precisas.

sips_columnas %>% mutate(
  tipo_documento = case_when(
    documento <= 10000000 ~ "Menor o igual a un millón",
    documento > 10000000 & documento < 20000000 ~ "Mayor a un millón",
    documento > 20000000 & documento < 30000000 ~ "Mayor a dos millones",
    documento > 30000000 & documento < 40000000 ~ "Mayor a tres millones",
    documento > 40000000 & documento < 50000000 ~ "Mayor a cuatro millones",
    documento > 50000000 ~ "Mayor a cinco millones",
    TRUE ~ "Otro"
  )
)

# A tibble: 574 × 6
   documento es_accionista institucion            fecha      sexo   tipo_docum…¹
       <dbl>         <dbl> <chr>                  <date>     <chr>  <chr>       
 1  20008549             0 Medicina Personalizada 2022-02-01 Hombre Mayor a dos…
 2  20172929             0 Medicina Personalizada 2022-02-01 Hombre Mayor a dos…
 3  20438713             0 Medicina Personalizada 2022-02-01 Hombre Mayor a dos…
 4  20480631             0 Medicina Personalizada 2022-02-01 Mujer  Mayor a dos…
 5  20688953             0 Medicina Personalizada 2022-02-01 Mujer  Mayor a dos…
 6  21431711             0 Medicina Personalizada 2022-02-01 Mujer  Mayor a dos…
 7  21484809             0 Medicina Personalizada 2022-02-01 Hombre Mayor a dos…
 8  22301055             0 Medicina Personalizada 2022-02-01 Hombre Mayor a dos…
 9  22392659             0 Medicina Personalizada 2022-02-01 Hombre Mayor a dos…
10  22806233             0 Medicina Personalizada 2022-02-01 Hombre Mayor a dos…
# … with 564 more rows, and abbreviated variable name ¹​tipo_documento
…
